{"totalCount":7,"pageSize":3,"pageNumber":1,"totalPage":3,"resultList":[{"id":8,"unitProjectName":"单位工程节点01","deptProjectName":"分部工程001","childItemizedName":"子分项工程001","childItemizedNum":"C1-LJ1-1-2","createTime":1493798872000},{"id":6,"unitProjectName":"test单位工程节点06","deptProjectName":"test分部工程006","childItemizedName":"test子分项工程006","childItemizedNum":"testC1-LJ1-1-6","createTime":1493798872000},{"id":5,"unitProjectName":"test单位工程节点05","deptProjectName":"test分部工程005","childItemizedName":"test子分项工程005","childItemizedNum":"testC1-LJ1-1-5","createTime":1493798872000}]}